[gd_scene load_steps=3 format=2]

[ext_resource path="res://Enemy.tscn" type="PackedScene" id=1]
[ext_resource path="res://Enemies/Muffin/MuffinAI.gd" type="Script" id=2]

[node name="Mob" instance=ExtResource( 1 )]

[node name="MuffinAI" type="Node2D" parent="." index="3"]

script = ExtResource( 2 )


